<?xml version="1.0" standalone="no"?>
<!DOCTYPE svg PUBLIC "-//W3C//DTD SVG 1.1//EN" "http://www.w3.org/Graphics/SVG/1.1/DTD/svg11.dtd" >
<svg xmlns="http://www.w3.org/2000/svg">
<metadata>Generated by IcoMoon</metadata>
<defs>
<font id="icomoon" horiz-adv-x="1024">
<font-face units-per-em="1024" ascent="960" descent="-64" />
<missing-glyph horiz-adv-x="1024" />
<glyph unicode="&#x20;" horiz-adv-x="512" d="" />
<glyph unicode="&#xe900;" glyph-name="ninja-portrait" d="M602.468 315.62c-45.762-4.357-95.266 51.696-147.015 51.696-55.358 0-108.203-55.679-156.611-50.707-132.527 13.552-231.856 43.81-258.506 80.564 7.591-54.636 21.331-106.305 39.748-154.179 4.731-4.758 9.436-9.436 14.354-14.327 13.739-15.209 31.862-27.345 48.248-42.233 18.417-12.456 36.54-26.57 57.202-37.422 19.673-12.536 41.672-21.411 63.056-31.381 22.266-7.805 44.185-16.893 67.012-21.705 22.373-6.629 45.174-9.275 67.066-13.258 22.132-0.829 43.57-4.811 64.018-3.609 10.238 0.107 20.208 0.16 29.857 0.267 9.596 0.989 18.871 2.031 27.772 2.967 17.936 1.417 34.027 4.704 48.488 7.431 7.244 1.337 13.98 2.646 20.261 3.796 6.121 1.764 11.708 3.395 16.786 4.892 20.502 5.667 32.236 8.901 32.236 8.901s-11.093-5.025-30.552-13.846c-4.918-2.138-10.371-4.491-16.279-7.057-6.148-1.925-12.804-4.063-19.914-6.308-14.22-4.678-30.365-10.157-48.675-12.697-9.115-1.657-18.577-3.421-28.387-5.212-9.97-0.829-20.261-1.684-30.846-2.62-21.224-2.807-43.73-0.748-67.039-0.374-22.988 3.448-47.285 4.731-70.888 11.654-24.11 4.811-47.366 13.926-70.941 22.026-22.48 10.745-45.494 20.475-66.077 33.947-21.678 11.601-39.961 27.612-58.779 41.298-8.607 8.099-17.321 15.824-25.581 23.603 75.405-153.804 205.099-255.726 352.997-255.726 206.89 0 378.738 198.818 415.117 461.173-27.318-37.689-130.843-68.482-268.129-81.553zM598.645 383.113c52.685 10.077 51.535 21.919 51.081 26.436-1.283 12.055-18.417 12.055-26.65 12.055-8.687 0-19.032-0.829-29.938-2.379-9.436-1.363-40.843-6.549-49.050-17.775-2.031-2.833-2.86-6.121-2.352-9.329 2.031-12.323 19.513-12.323 26.115-12.323 8.767-0.027 19.727 1.176 30.793 3.315zM324.128 379.424c5.854 0 23.603 0 25.714 12.323 0.561 3.181-0.267 6.522-2.299 9.382-7.912 11.066-37.075 16.439-45.815 17.802-10.050 1.604-19.647 2.432-27.772 2.432-7.324 0-24.538 0-26.169-12.109-1.524-11.36 14.621-20.342 47.9-26.783 10.264-2.005 20.101-3.047 28.441-3.047zM990.801 785.239c0 0-2.833 6.362-9.863 15.931-3.475 4.865-8.046 10.425-13.712 16.573-5.56 6.442-12.59 12.456-20.956 17.481-8.286 5.399-17.669 10.772-27.933 15.824-10.211 5.293-21.838 7.19-33.867 9.73-3.769 0.561-7.618 0.855-11.494 1.23 8.607 3.315 16.974 6.549 24.645 10.318 8.26 3.528 15.985 7.057 22.908 10.558 6.923 3.822 13.151 6.362 18.337 9.356 10.398 5.587 16.599 10.131 16.599 10.131l0.214 0.134c0.401 0.294 0.748 0.668 1.042 1.123 1.363 2.031 0.802 4.785-1.256 6.121 0 0-6.175 4.116-17.588 8.955-5.693 2.379-12.723 5.373-20.849 7.217s-17.481 3.929-27.692 5.132c-10.184 0.695-21.357 1.176-33.065 0.374-11.628-1.283-24.030-2.673-36.192-6.87-12.189-4.090-24.298-9.783-35.872-17.107-11.841-6.495-23.015-14.996-34.508-22.132-2.085-1.55-4.143-3.101-6.228-4.624 10.024-9.008 19.593-18.577 28.895-28.574 4.651-5.132 9.222-10.371 13.739-15.717 10.238-12.082 19.78-24.805 28.815-38.037 8.981-1.657 17.963-3.502 26.57-5.506 10.451-1.871 20.101-5.827 29.697-7.859 9.516-2.058 19.406-1.844 28.307-3.127 8.874-1.363 17.615-2.031 26.062-2.192 4.197-0.187 8.393-0.027 12.429 0.107 3.876-0.241 7.271-1.069 10.906-1.096 7.003-0.481 13.525-0.722 19.165-0.615 11.227 0.053 18.791 0.962 18.791 0.962l0.535 0.053c0.428 0.053 0.829 0.16 1.256 0.347 2.165 0.989 3.154 3.582 2.165 5.8zM785.328 757.52c-19.673 12.536-41.699 21.411-63.056 31.381-22.266 7.805-44.185 16.893-67.039 21.678-22.346 6.629-45.147 9.275-67.039 13.285-22.132 0.829-43.597 4.785-64.045 3.582-10.238-0.080-20.208-0.16-29.857-0.241-9.569-1.016-18.871-2.031-27.772-2.967-17.936-1.417-34.054-4.731-48.488-7.458-7.244-1.337-14.007-2.62-20.261-3.769-6.094-1.791-11.708-3.421-16.786-4.892-20.502-5.667-32.236-8.901-32.236-8.901s11.093 5.025 30.526 13.819c4.918 2.112 10.371 4.464 16.305 7.030 6.148 1.951 12.804 4.090 19.914 6.335 14.22 4.651 30.339 10.131 48.675 12.67 9.115 1.684 18.604 3.421 28.414 5.212 9.97 0.855 20.261 1.711 30.846 2.62 21.197 2.807 43.704 0.748 67.039 0.347 22.961-3.421 47.285-4.704 70.861-11.628 24.11-4.811 47.366-13.953 70.941-22.026 14.835-7.11 29.617-14.167 44.078-21.731-4.999 6.629-9.676 13.552-15.022 19.86-4.517 5.346-9.061 10.585-13.793 15.664-9.249 9.997-18.845 19.54-28.922 28.574-72.224 64.954-163.614 104.033-263.264 104.033-233.353 0-422.521-213.011-422.521-475.794 0-20.074 1.47-39.721 3.609-59.154 26.008 44.987 203.469 79.789 418.993 79.789s393.011-34.802 418.913-79.736c2.138 19.433 3.609 39.079 3.609 59.154 0 95.266-25.153 183.769-68.028 258.105-7.912 5.319-15.904 10.612-24.592 15.156z" />
<glyph unicode="&#xe901;" glyph-name="sunset-fuji-mountain" d="M422.592 480.312c1.419 0.177 35.022 4.139 56.465 4.139 7.529 0 12.811-0.473 16.673-1.616l17.639 9.716c1.577 0.867 3.35 1.301 5.085 1.301 2.247 0 4.513 0 6.366-1.419 0.177-0.118 16.003-11.194 31.81-11.194l1.301 1.498c0.158 0 0.296 0 0.434 0 2.207 0 4.375-2.168 6.149-3.469 1.656-1.202 128.993-93.301 297.62-167.149 0.473 7.529 1.143 14.959 1.143 22.586 0 189.636-153.747 343.363-343.383 343.363-183.132 0-332.346-143.498-342.378-324.128 84.747 38.471 165.611 80.175 240.977 124.992 1.242 0.729 2.641 1.202 4.099 1.38zM861.522 300.57c-173.337 74.893-303.158 168.725-303.158 168.725-0.572-0.020-1.163-0.039-1.754-0.039-19.787 0-38.176 14.092-38.176 14.092l-23.315-12.791c0.512 2.523-6.464 3.39-16.2 3.39-21.068 0-55.322-4.060-55.322-4.060-83.289-49.508-167.050-91.822-246.732-127.771-36.086-16.279-71.404-31.416-105.323-45.054 10.919-6.76 20.32-12.456 22.468-12.456 5.341 0-94.010-48.424-94.010-48.424l79.544 24.439v-10.662l62.122 12.436 64.782 15.314-60.88-41.526 100.179 41.526 19.906-20.674 58.81 62.22-8.81-53.331 44.482 24.912c0 0-67.502-71.109-62.181-72.863 0.059-0.039 0.138-0.039 0.237-0.039 7.489 0 102.84 69.335 102.84 69.335s-39.417-53.312-29.484-56.899c0.828-0.276 2.444-0.414 4.71-0.414 25.148 0 132.442 17.915 182.955 53.785 17.304 12.278 30.785 16.496 41.073 16.496 22.507 0 29.996-20.083 29.996-20.083l81.751-42.649-33.781 31.080c0 0 5.538 0.493 13.973 0.493 16.831 0 45.29-1.991 64.23-13.816 5.282-3.291 8.593-4.632 10.485-4.632 8.416 0-10.485 25.956-10.485 25.956s131.496-44.423 145.745-46.217c0.394-0.039 0.69-0.079 1.005-0.079 10.268 0-41.881 30.292-41.881 30.292l85.299-16.003 76.765-7.608c0.197 1.734 0.434 3.469 0.611 5.203-56.485 15.885-111.334 36.323-162.478 58.397z" />
<glyph unicode="&#xe902;" glyph-name="japanese-flower" d="M307.25 710.836c2.334-1.288 4.467-3.058 6.197-5.312l166.713-218.099c3.461 1.167 6.841 2.475 10.462 3.259v80.741c0 11.126 8.994 20.12 20.12 20.12s20.12-8.994 20.12-20.12v-80.761c6.157-1.308 12.072-3.199 17.705-5.634l166.25 229.286c0.765 4.527 1.388 9.094 1.972 13.822 2.897 24.667-11.609 75.449-58.046 110.277-18.872 11.609-130.578 79.795-148.002 100.116-17.404-20.321-129.129-88.507-148.002-100.116-46.437-34.827-60.943-85.61-58.046-110.277 0.704-5.955 1.489-11.629 2.555-17.303zM152.549 301.055l263.409 88.749c-0.201 2.535-0.765 4.949-0.765 7.525 0 3.28 0.644 6.398 0.966 9.597l-77.2 25.069c-10.563 3.44-16.357 14.768-12.937 25.351s14.808 16.337 25.351 12.937l77.16-25.049c4.648 7.927 10.201 15.19 16.84 21.448l-163.896 214.417c-1.771 2.334-2.897 4.929-3.521 7.605-4.607 2.455-9.275 4.748-14.205 7.002-22.554 10.382-75.349 12.273-122.812-21.126-16.86-14.345-116.253-99.533-140.94-109.814 13.943-22.836 44.264-150.175 49.475-171.683 18.772-54.927 62.593-84.403 86.938-89.272 5.493-1.107 10.804-2.032 16.136-2.756zM424.69 244.639c-3.923-5.452-10.060-8.289-16.297-8.289-4.104 0-8.229 1.247-11.81 3.843-8.973 6.499-10.985 19.074-4.446 28.087l47.664 65.591c-4.748 5.292-8.792 11.106-12.273 17.363l-266.689-89.855c-2.092-2.133-4.145-4.326-6.237-6.599-16.84-18.249-34.968-67.864-17.866-123.315 8.43-20.482 58.75-141.322 60.883-168.001 26.035 6.217 156.492-4.306 178.584-5.996 58.026 0.885 99.613 33.439 111.766 55.088 2.515 4.487 4.829 8.853 7.022 13.299v277.453c-7.967 1.328-15.613 3.521-22.796 6.68l-47.503-65.349zM863.383 267.454l-266.306 89.533c-3.964-8.491-9.195-16.196-15.372-23.077l47.664-65.611c6.539-8.994 4.567-21.568-4.446-28.087-3.581-2.595-7.706-3.823-11.83-3.823-6.237 0-12.333 2.897-16.297 8.289l-47.523 65.41c-4.487-2.012-9.235-3.42-14.084-4.708v-281.356c1.589-3.038 3.219-6.096 4.97-9.195 12.152-21.649 53.74-54.203 111.766-55.088 22.071 1.69 152.549 12.173 178.584 5.996 2.113 26.679 52.452 147.519 60.863 167.981 17.122 55.491-0.986 105.086-17.866 123.355-3.32 3.581-6.68 7.022-10.12 10.382zM883.101 678.081c-47.443 33.399-100.237 31.508-122.812 21.126-3.561-1.65-7.002-3.32-10.382-5.030l-168.785-232.767c4.547-4.97 8.45-10.402 11.83-16.217l77.18 25.069c10.503 3.44 21.89-2.354 25.351-12.937 3.44-10.543-2.354-21.911-12.937-25.351l-77.22-25.089c0.322-3.199 0.986-6.277 0.986-9.577 0-0.322-0.121-0.624-0.121-0.946l270.713-91.022c3.541 0.583 7.082 1.207 10.684 1.952 24.365 4.869 68.186 34.345 86.918 89.292 5.231 21.528 35.552 148.847 49.495 171.683-24.647 10.281-124.019 95.469-140.899 109.814zM563.919 382.882c0.121 0.423 0.282 0.785 0.382 1.227 1.066 4.265 1.771 8.652 1.771 13.239 0 18.229-8.933 34.264-22.554 44.364-0.362 0.262-0.644 0.563-0.986 0.805-9.034 6.358-19.939 10.161-31.789 10.161-1.348 0-2.616-0.302-3.923-0.402-9.295-0.664-17.947-3.501-25.411-8.209-0.362-0.221-0.785-0.382-1.127-0.624-3.823-2.535-7.183-5.613-10.261-8.994-8.953-9.839-14.567-22.776-14.567-37.121 0-5.050 0.905-9.839 2.173-14.486 0.121-0.423 0.262-0.825 0.382-1.247 6.821-22.836 27.765-39.616 52.774-39.616 0.443 0 0.865 0.121 1.308 0.141 0.443 0 0.845 0.101 1.288 0.121 24.285 1.147 44.344 17.967 50.541 40.642z" />
<glyph unicode="&#xe903;" glyph-name="japanese-shuriken" d="M1012.366 567.433h-264.543c-13.435 0-23.95-11.147-27.941-23.998-10.222-32.858-40.89-56.686-77.058-56.686-44.589 0-80.685 36.119-80.685 80.685 0 24.802 11.196 46.999 28.842 61.797 10.271 8.64 17.354 23.001 13.168 35.779l-84.652 260.478c-4.162 12.778-10.88 12.778-15.042 0l-83.849-258.069c-4.162-12.778 2.166-28.696 11.050-38.772 12.462-14.117 20.056-32.615 20.056-52.938 0-44.565-36.119-80.685-80.685-80.685-33.272 0-61.554 20.202-73.821 48.971-5.257 12.364-16.94 23.463-30.4 23.463h-255.172c-13.46-0.024-15.528-6.426-4.649-14.336l226.209-164.338c10.88-7.886 27.601-6.499 39.722-0.657 10.442 5.038 22.124 7.886 34.513 7.886 44.565 0 80.685-36.119 80.685-80.66 0-44.565-36.119-80.685-80.685-80.685-4.503 0-8.908 0.462-13.168 1.266-7.18 1.339-16.137-6.985-20.275-19.763l-78.737-242.321c-4.162-12.778 1.29-16.745 12.17-8.835l216.838 157.548c10.88 7.886 13.849 22.879 10.295 34.927-2.093 7.107-3.237 14.628-3.237 22.392 0 44.565 36.119 80.685 80.685 80.685s80.685-36.119 80.685-80.685c0-7.764-1.144-15.285-3.237-22.392-3.554-12.024-0.584-27.017 10.295-34.927l216.838-157.548c10.855-7.886 16.332-3.943 12.17 8.835l-78.105 240.35c-4.162 12.778-11.805 21.954-17.257 21.199-3.213-0.487-6.499-0.73-9.857-0.73-44.565 0-80.66 36.119-80.66 80.685 0 44.541 36.095 80.66 80.66 80.66 10.88 0 21.175-2.239 30.619-6.231 12.364-5.233 29.475-6.231 40.354 1.679l222.534 161.661c10.88 7.91 8.762 14.311-4.673 14.311zM511.951 346.554c-38.894 0-70.413 31.519-70.413 70.438 0 38.894 31.519 70.413 70.413 70.413s70.413-31.519 70.413-70.413c0-38.918-31.519-70.438-70.413-70.438z" />
<glyph unicode="&#xe90b;" glyph-name="droplet" d="M864.626 486.838c-65.754 183.44-205.11 348.15-352.626 473.162-147.516-125.012-286.87-289.722-352.626-473.162-40.664-113.436-44.682-236.562 12.584-345.4 65.846-125.14 198.632-205.438 340.042-205.438s274.196 80.298 340.040 205.44c57.27 108.838 53.25 231.962 12.586 345.398zM738.764 201.044c-43.802-83.252-132.812-137.044-226.764-137.044-55.12 0-108.524 18.536-152.112 50.652 13.242-1.724 26.632-2.652 40.112-2.652 117.426 0 228.668 67.214 283.402 171.242 44.878 85.292 40.978 173.848 23.882 244.338 14.558-28.15 26.906-56.198 36.848-83.932 22.606-63.062 40.024-156.34-5.368-242.604z" />
<glyph unicode="&#xe910;" glyph-name="headphones" d="M288 384h-64v-448h64c17.6 0 32 14.4 32 32v384c0 17.6-14.4 32-32 32zM736 384c-17.602 0-32-14.4-32-32v-384c0-17.6 14.398-32 32-32h64v448h-64zM1024 448c0 282.77-229.23 512-512 512s-512-229.23-512-512c0-61.412 10.83-120.29 30.656-174.848-19.478-33.206-30.656-71.87-30.656-113.152 0-112.846 83.448-206.188 192-221.716v443.418c-31.914-4.566-61.664-15.842-87.754-32.378-5.392 26.718-8.246 54.364-8.246 82.676 0 229.75 186.25 416 416 416s416-186.25 416-416c0-28.314-2.83-55.968-8.22-82.696-26.1 16.546-55.854 27.848-87.78 32.418v-443.44c108.548 15.532 192 108.874 192 221.714 0 41.274-11.178 79.934-30.648 113.138 19.828 54.566 30.648 113.452 30.648 174.866z" />
<glyph unicode="&#xe916;" glyph-name="pacman" d="M964.73 781.196c-93.902 109.45-233.21 178.804-388.73 178.804-282.77 0-512-229.23-512-512s229.23-512 512-512c155.52 0 294.828 69.356 388.728 178.804l-324.728 333.196 324.73 333.196zM704 839.398c39.432 0 71.398-31.964 71.398-71.398 0-39.432-31.966-71.398-71.398-71.398s-71.398 31.966-71.398 71.398c0 39.432 31.966 71.398 71.398 71.398z" />
<glyph unicode="&#xe917;" glyph-name="spades" d="M817.57 611.85c-193.566 143.858-260.266 259.018-305.566 348.148v0c-0.004 0-0.004 0.002-0.004 0.002v-0.002c-45.296-89.13-112-204.292-305.566-348.148-330.036-245.286-19.376-587.668 253.758-399.224-17.796-116.93-78.53-202.172-140.208-238.882v-37.744h384.032v37.74c-61.682 36.708-122.41 121.954-140.212 238.884 273.136-188.446 583.8 153.94 253.766 399.226z" />
<glyph unicode="&#xe918;" glyph-name="clubs" d="M786.832 567.228c-59.032 0-112.086-24.596-149.852-64.694-15.996-16.984-43.762-37.112-73.8-54.81 14.11 53.868 58.676 121.7 89.628 151.456 39.64 38.17 63.984 91.83 63.984 151.5 0.006 114.894-91.476 208.096-204.788 209.32-113.32-1.222-204.796-94.426-204.796-209.318 0-59.672 24.344-113.33 63.986-151.5 30.954-29.756 75.52-97.588 89.628-151.456-30.042 17.7-57.806 37.826-73.8 54.81-37.768 40.098-90.82 64.694-149.85 64.694-114.386 0-207.080-93.664-207.080-209.328 0-115.638 92.692-209.338 207.080-209.338 59.042 0 112.082 25.356 149.85 65.452 16.804 17.872 46.444 40.138 78.292 58.632-3.002-147.692-73.532-256.168-145.318-298.906v-37.742h384.014v37.74c-71.792 42.736-142.32 151.216-145.32 298.906 31.852-18.494 61.488-40.768 78.292-58.632 37.766-40.094 90.808-65.452 149.852-65.452 114.386 0 207.078 93.7 207.078 209.338-0.002 115.664-92.692 209.328-207.080 209.328z" />
<glyph unicode="&#xe919;" glyph-name="diamonds" d="M512 960l-320-512 320-512 320 512z" />
</font></defs></svg>